Name,Count
A. Costa,2
A. Li,2
A. Miller,5
A. Myers,4
A. Small,2
A. Smith,16
A. Wilson,6
Aaron Adams,2
Aaron Allen,2
Aaron Cooper,2
Aaron Phillips,2
Aaron Tate,2
Aaron Thomas,7
Aaron Todd,2
Abraham Ramirez,2
Adam Anderson,3
Adam Bell,2
Adam Contreras,2
Adam Cooper,2
Adam Guerrero,2
Adam Hawkins,2
Adam Howell,3
Adam Jackson,3
Adam James,2
Adam Jones,11
Adam Miller,10
Adam Roberts,2
Adam Saunders,2
Adam Scott,2
Adam Williams,5
Adam Wright,2
Alan Chan,2
Alan Hernandez,8
Alasdair MacLeod,2
Alejandro Maldonado,3
Alejandro Perez,2
Aleksandr Aleksandrov,5
Aleksandr Koshelev,2
Aleksandr Pirogov,2
Alex Buck,2
Alex Campbell,5
Alex Chen,3
Alex Davies,3
Alex Diaz,3
Alex Howe,2
Alex Jensen,2
Alex Johnson,5
Alex Lowe,2
Alex Michael,2
Alex Morrison,2
Alex Palmer,2
Alex Schutz,2
Alex Roberson,2
Alex Torres,2
Alex Turner,3
Alex Young,4
Alexander Hickman,2
Alexander Jackson,2
Alexandra Foster,2
Alicia Carter,2
Allen Clark,3
Allen Davis,3
Allen Fisher,2
Allen Smith,3
Allison Kelly,2
Álvaro Fernández Ramos,2
Alyssa Smith,2
Amanda Kelly,2
Amanda Reilly,2
Amanda Thompson,4
Amanda Torres,2
Amanda Walker,2
Amy Smith,4
Ana Perez,3
Andreas Nilsson,2
Andrew Adams,2
Andrew Baker,2
Andrew Bonner,2
Andrew Cargill,2
Andrew Gregory,3
Andrew Hawkins,2
Andrew Kelleher,2
Andrew Lamb,3
Andrew Lewis,5
Andrew Murphy,4
Andrew Platt,2
Andrew Rose,3
Andrew Shaw,2
Andrew Smith,17
Andrew Thompson,7
Andrew Ward,5
Andrew Watt,2
Andrew Wright,3
Andrew Young,5
Andrews,6
Andrey Belyaev,2
Andrey Chesnokov,2
Andrey Konovalov,3
Andy Adams,2
Andy Davies,2
Andy Gomez,4
Andy Hernandez,2
Andy Huang,2
Andy Jackson,2
Andy Smith,2
Andy Tran,3
Angel Gonzalez,6
Angel Hernandez,12
Angel Torres,4
Anthony Bui,3
Anthony Clark,5
Anthony Cooper,6
Anthony Davis,3
Anthony Finn,3
Anthony Green,2
Anthony Hambric,2
Anthony Harris,2
Anthony Nguyen,2
Anthony Oliveira,2
Anthony Powell,2
Anthony Salas,3
Anthony Thompson,4
Anthony White,4
Anthony Young,4
Artem Safonov,2
Arturo Gonzales,2
Ashley Armstrong,2
Ashley Butler,2
Ashley Evans,2
Ashley Garcia,7
Ash Roberts,2
Ashley Schultz,2
Austin Dodd,2
Austin Martin,4
Austin Taylor,6
Austin Walker,5
B. Crow,3
B. Dunn,4
B. Hall,5
B. Laney,2
B. Leach,2
B. Miller,14
B. Moore,9
B. Oden,3
B. Owen,2
B. Owens,6
B. Ray,4
B. Riggs,5
B. Roderick,2
B. Rush,4
Bailey Jones,4
Barbara Lee,2
Beau Moore,3
Benedikt Magnússon,2
Ben Jackson,3
Ben Johnson,9
Ben Larson,2
Ben McDonald,2
Ben Miller,4
Ben Nelson,3
Ben Scott,4
Ben Smith,11
Ben Wallace,2
Ben Wright,3
Benjamin Smith,7
Benjamin Wilson,3
Beth Thomas,2
Bill Brown,3
Bill Dunn,2
Bill Grant,2
Bill Henderson,2
Bill Jones,2
Bill Kelly,2
Bill Porter,2
Bill West,3
Blake Richards,2
Blake Taylor,2
Bobby Adams,3
Bobby Morgan,2
Bob Evans,2
Bob Seymour,2
Brad Johnson,3
Brad Lewis,2
Bradley Horne,2
Brandon Allen,4
Brandon Barber,2
Brandon Byrd,3
Brandon Hernandez,8
Brandon Maddox,2
Brandon Matthews,3
Brandon McIntyre,2
Brandon Pierce,5
Brandon Perdue,2
Brandon Rios,2
Brandon Scott,4
Brandon Simpson,5
Brandon Stephens,2
Brandon Stevens,3
Brandon Turner,7
Brayden Walker,2
Brent Drake,2
Brett Johns,3
Brian Bishop,3
Brian Bland,2
Brian Clark,3
Brian Curtis,2
Brian Goldstein,2
Brian Gonzales,2
Brian Grant,2
Brian Hall,3
Brian Sullivan,2
Brittany Rodriguez,3
Bruce Koch,2
Bryan Barrett,2
Bryan Hill,2
Bryan Simms,2
Bryan Smith,10
Bryan Wong,2
Bryce Johnson,3
Bryden Wilson,2
Byron Johnson,2
C. Able,2
C. Alitz,2
C. Brown,24
C. Crawford,4
C. Fernandez,3
C. Mitchell,2
C. Olson,2
C. Rowe,3
Caitlin Berry,3
Caleb MacLeod,2
Caleb Moore,4
Cameron Collins,3
Cameron McLean,2
Cameron Smith,9
Carl Thompson,2
Carlos Acosta,3
Carlos Moreno,2
Carlos Perez,7
Carlos Reyes,4
Carlos Romero,3
Carolyn Tran,2
Carson Roberts,2
Carson Ward,3
Casey Clark,3
Casey Dunn,2
Casey Williams,3
Catherine White,2
Cesar Jimenez,2
Chad Fleming,2
Chad Walker,2
Charles Anderson,2
Charles Harris,2
Charles Lambert,2
Charles Montalbano,2
Charlie Anderson,2
Chase Patterson,3
Chen,3
Chloe Brown,3
Chris Baker,3
Chris Bartley,2
Chris Blair,2
Chris Butler,5
Chris Davey,2
Chris Carpenter,3
Chris Galvan,4
Chris Graham,4
Chris Gonzales,5
Chris Grant,3
Chris Green,4
Chris Hughes,5
Chris Jackson,14
Chris Janssen,2
Chris Jenkins,11
Chris Johnston,3
Chris Jones,25
Chris Kennedy,4
Chris Lane,2
Chris Larson,2
Chris Lentini,2
Chris Lindsay,2
Chris Marshall,4
Chris Mason,3
Chris Mitchell,4
Chris Moody,2
Chris Morris,8
Chris Mott,2
Chris Nelson,7
Chris Parker,2
Chris Pugh,2
Chris Robinson,8
Chris Smith,27
Chris Stark,2
Chris Williams,13
Chris Wood,6
Christian Aquino,2
Christian Moore,2
Christian Navarro,4
Christian Williams,6
Christina Sanchez,2
Christine Miller,3
Christopher Bell,2
Christopher Robinson,2
Christopher Whittaker,2
Christopher Young,3
Claire Taylor,2
Clayton Wilson,2
Clinton Lee,2
Cody Banks,3
Cody Hanson,2
Cody Miller,4
Cody Prather,2
Cody Thornton,2
Colby Wilson,2
Cole Barton,4
Cole Smith,5
Colin Wright,2
Collin Grant,2
Collin Rhodes,2
Connor Lynch,3
Corey Grisham,2
Cortney Young,2
Cory Harris,3
Courtney Smith,3
Craig Smith,3
Cristian Garcia,5
Cristian Gonzalez,3
Cross,4
Curtis Miller,3
D. Angelo,2
D. Evans,8
D. Hein,2
D. Martin,7
D. Ollar,2
D. Orr,6
D. Raymond,2
D. Ross,5
D. Taylor,3
D. Wilson,19
Dale Smith,2
Dan Brown,5
Dan Howard,2
Dan Jackson,2
Dan Martinez,2
Dan Mason,5
Dan Thompson,2
Daniel Austin,2
Daniel Bell,3
Daniel Brown,5
Daniel Byrd,2
Daniel Clarke,2
Daniel Collins,4
Daniel Cook,3
Daniel Dale,3
Daniel Goodwin,2
Daniel Heller,2
Daniel Keil,2
Daniel Lee,11
Daniel Lewis,4
Daniel Lopez,10
Daniel Martinez,4
Daniel Moreno,3
Daniel Rodriguez,9
Daniel Ryan,2
Daniel Shaw,2
Daniel Stafford,2
Daniel Thomas,2
Daniel Tinajero,2
Daniel Vo,2
Daniel Wade,4
Daniel Watson,4
Danny Brown,2
Danny Lee,4
Danny Rodriguez,2
Danny Smith,3
Danny Stone,2
Darren Smith,3
Dave Brown,4
Dave Crawford,3
Dave Kennedy,3
Dave Murphy,2
Dave Richardson,4
Dave Smith,9
Dave Wheeler,2
David Alexander,3
David Anderson,8
David Andrews,4
David Baker,4
David Balsdon,2
David Bell,5
David Bennett,5
David Carroll,2
David Carter,7
David Cooper,3
David Courtney,2
David Decanini,2
David Farkas,2
David Green,4
David Hanson,4
David Herrera,3
David Hudson,2
David Hughes,5
David Johnston,4
David Koch,3
David Lu,2
David Martin,8
David Martinez,17
David May,4
David McKenzie,2
David Moore,3
David Morris,3
David Nilsson,2
David Osborn,2
David Parr,2
David Patterson,4
David Ramsey,2
David Roberts,4
David Shepherd,3
David Sloan,3
David Son,8
David Torres,6
David Vaughan,2
David Wagner,3
David Watkins,2
David Watson,4
David Williams,10
David Williamson,2
David Wilson,11
Dean Wright,2
Denis Chernov,5
Dennis,2
Dennis Arnold,2
Dennis Smith,3
Dennis Wright,2
Diego Perez,5
Dillon Anderson,2
Dillon Peterson,2
Dmitriy Sedov,3
Dominique Fisher,2
Don Johnson,4
Don Jones,4
Donnie Thompson,2
Doug Arnold,2
Duy Tran,4
Dylan Crawford,2
Dylan Nelson,3
Dylan Smith,11
E. Godfrey,5
Ed Riley,3
Ed Smith,2
Eduardo Garcia,6
Eduardo Ramirez,2
Edward Owen,2
Elias George,2
Elizabeth Barnard,2
Elizabeth Hughes,2
Elizabeth Turner,3
Eloy Martinez,2
Emily Hu,2
Emily Smith,4
Emma Brown,3
Emma Taylor,3
Emmanuel Hernandez,3
Enrique Rodriguez,4
Eric Anderson,5
Eric Banks,2
Eric Campbell,3
Eric Gilbert,2
Eric Gonzales,2
Eric Gray,2
Eric Hall,4
Eric Kratz,2
Eric Pierce,2
Eric Richardson,2
Eric Smith,11
Eric Torres,3
Erica Gomez,2
Erick Baker,2
Erickson,3
Erika Johnson,2
Erik Anderson,3
Erika Young,2
Erik Karlsson,2
Ethan Clark,3
Ethan Fudge,2
Ethan Gonzalez,5
Evan Anderson,3
Evan Perez,2
F. Oster,2
Felipe Hernandez,5
Felix Flores,2
Fernando Rivera,2
Francis Barrett,2
Francisco Moreno,3
Frank Luna,2
Frank O'Donnell,2
Frank Sanders,2
Frank Ybarra,2
Frankie Rodriguez,2
Frode Gundersen,2
G. Alloway,2
G. Norton,2
G. Ross,4
Gabor Kiss,2
Gabriel Acosta,2
Gabriel Moreno,2
Garret Jacobsen,2
Garry Frank,2
Gary Fletcher,2
Gary Hunter,2
Gary Jones,3
Gary McLean,2
Gary Miller,7
Gary Young,2
Gavin Smith,3
Gerard McNamara,2
Gerald Smith,2
Gerardo Calderon,2
Gordon Smith,2
Grace Thomas,2
Grant Connors,2
Greg Fields,3
Greg Jones,5
Greg Lewis,2
Greg Simmons,2
Greg Smith,2
Greg White,2
Greg Wilson,2
Greg Young,3
Guillermo Estrada,2
Hannah Holmes,3
Hannah Johnson,2
Hammond,3
Hayden Taylor,3
Hector Granados,2
Heikki Laakso,2
Helen Hughes,2
Helen Williams,2
Helgi Jónsson,2
Henry Garcia,2
Henry Hernandez,2
Hieu Le,2
Hitoshi Nakamura,2
Hung,2
Hunter Casey,2
Hunter Henderson,2
Hunter Martin,4
Hunter Wilson,4
Ian Marshall,2
Ian McKay,2
Ian Sanchez,2
Ian Williams,3
Ibrahim,2
Igor Zhuk,2
Inna Filimonova,2
Iraida Garcia,2
Isaac Robles,3
Isaac Salinas,2
Ivan Komissarov,2
J. Acevedo,2
J. Bernal,2
J. Burke,2
J. Cooper,8
J. Davis,28
J. Donahue,2
J. Doyle,8
J. Gray,2
J. Griffin,7
J. Haley,2
J. Miller,18
J. Smith,14
J. Stevenson,2
J. Thompson,9
Jace Phillips,2
Jack Bartlett,2
Jack Davis,4
Jack Harvey,2
Jack Henderson,2
Jack Hughes,3
Jack Taylor,6
Jack Wolff,2
Jack Young,5
Jacob Atkinson,2
Jacob Hughes,3
Jacob Hurley,2
Jacob Jenkins,3
Jacob Manley,2
Jacob McBride,2
Jacob Noble,3
Jacob Wallace,2
Jacob Winstead,2
Jacob Stone,2
Jake Allison,2
Jake Johnson,9
Jake Roberts,3
Jake Simpson,3
Jake Williams,7
James Brennan,2
James Butler,4
James Carr,4
James Chapman,3
James Christian,2
James Clarke,2
James Cooper,4
James Daly,2
James Dunn,3
James Edwards,3
James Ellis,4
James Grant,3
James Gregory,2
James Hayden,2
James Henderson,4
James Howell,3
James Jacobs,4
James Lee,6
James MacDonald,3
James Miller,6
James Mooney,2
James Perry,6
James Ray,3
James Robertson,4
James Simmons,2
James Stein,2
James Taylor,10
James Walker,5
James Waller,2
James Williams,17
James Wilson,14
James Wright,3
Jamie Green,2
Jamie Harris,3
Jamie Lewis,3
Jared Brown,2
Jared Martin,5
Jared Scott,2
Jari Leino,2
Jari Nieminen,2
Jason Byrne,3
Jason Chan,2
Jason Clarke,4
Jason Cook,4
Jason Holmes,2
Jason Jackson,8
Jason Lopez,3
Jason Schmidt,2
Jason Weaver,2
Javier de la Torre,2
Javier Garcia,11
Jay Smith,2
Jean-François Caron,3
Jeff Carr,3
Jeff Cohen,2
Jeff Douglas,2
Jeff Johnston,3
Jeff Lawson,2
Jeff Lewis,2
Jeff Phillips,2
Jeff Wright,5
Jeffrey Allen,2
Jeffrey Guo,2
Jeffrey Johnson,4
Jeffrey Thompson,3
Jenna Hoffman,2
Jennifer De Leon,2
Jennifer Hobbs,2
Jennifer Martinez,10
Jennifer Thompson,2
Jen Smith,2
Jeremy Adams,3
Jeremy Hines,2
Jeremiah Johnson,7
Jeremy Sanchez,2
Jeremy Smith,9
Jeremy Stevens,3
Jeremy Willis,2
Jesse Hudson,2
Jesse Peterson,2
Jesse Salinas,3
Jesse Woods,2
Jessi Stewart,2
Jessica Ayala,2
Jessica Bishop,2
Jessica Brown,6
Jessica Evans,2
Jessica Ford,2
Jessica Hill,3
Jessica Jones,2
Jessica Ramirez,2
Jessica Taylor,3
Jessica Thompson,2
Jessica Watson,3
Jesus Hernandez,5
Jesus Morales,5
Jillian Clark,2
Jim Benson,2
Jim Taylor,4
Jim Williams,4
Jim Wilson,3
Joan Lopez,2
Joanne Barnes,2
Jodie Cook,2
Jodie Smith,2
Joe Brown,4
Joe Cunningham,3
Joe Francisco,2
Joe Lewis,2
Joe Lucas,2
Joe Mass,2
Joe Reeves,2
Joe Valdez,3
Joe Vega,5
Joel Bell,3
Joey Reid,2
Johanna Reichel,2
John Brennan,3
John Corcoran,2
John Crowley,4
John Davis,14
John Dean,2
John Dignan,2
John Ford,3
John Gabriel,2
John Gallacher,2
John Jones,5
John Lake,2
John Lane,2
John Marsden,2
John Morris,6
John Nolan,2
Johnny Walker,2
John Pappas,2
John Perez,2
John Pollock,2
John Roberts,4
John Rooney,2
John Sanchez,7
John Santos,3
John Scott,4
John Simpson,2
John Smith,13
John Walker,6
John Welch,2
John Wells,3
John Wilkerson,2
John Wright,8
Johnpaul Hayes,2
Jon Clark,3
Jon Cole,2
Jon Green,3
Jon Martin,3
Jonathan Clark,5
Jonathan Davis,3
Jonathan Herrera,2
Jonathan Mills,2
Jonathan Rodgers,3
Jonathan Stewart,4
Jonny Gardner,2
Jordan Alexander,3
Jordan Gregory,2
Jordan Harris,5
Jordan Holley,2
Jordan Smith,2
Jorge Gonzalez,8
Jorge Maldonado,2
Jose Alvarado,4
Jose Delacruz,2
Jose Gonzalez,7
Jose Perez,13
Jose Rivas,2
Joseph Brown,3
Joseph Coogan,2
Joseph Peña,3
Joseph Rogers,2
Joseph Stein,2
Joseph Walton,2
Joseph White,2
Josh Banks,2
Josh Brown,13
Josh Bryant,2
Josh Day,2
Josh Ellis,3
Josh Edwards,4
Josh Flores,3
Josh Kelly,3
Josh King,8
Josh Morris,3
Josh Nicklin,2
Josh Smith,28
Josh Walker,8
Josh Wallace,3
Josh Walton,2
Josh Wright,2
Joshua Black,2
Joshua Powell,3
Joshua Schwartz,3
Joshua Wright,2
Joshua Yu,3
Juan Aguilar,3
Juan Hernandez,16
Juan Pereyra,2
Julia Moller,2
Julian Diaz,3
Julian Lee,2
Julie Green,2
Julie Marshall,2
Julio Chavez,2
Julio Medina,2
Julio Sanchez,3
Jussi Mustonen,2
Justin Horn,2
Justin Hurley,3
Justin Jackson,5
Justin Myers,3
Justin Roberts,3
Justin Smith,25
Justin Sorenson,2
Justin Swanson,2
Justin Thacker,2
Justin Turner,2
Justin Watson,3
Justin Wilson,11
K. Eller,3
K. Haden,2
K. Irvin,2
K. Jackson,4
K. Stewart,4
Karl Francis,2
Katie Edwards,3
Kayla Anderson,3
Keith Baker,2
Kelly Brown,3
Kelly Clark,2
Kelly Smith,5
Kelsey Brown,2
Ken Williams,2
Kenneth Cook,2
Kenneth Mitchell,3
Kenneth Williams,4
Kenny Ramirez,2
Kevin Chu,3
Kevin Gray,2
Kevin Hu,2
Kevin Jager,2
Kevin James,3
Kevin Jones,12
Kevin Nguyen,13
Kevin Payne,3
Kevin Sampson,2
Kevin Serrano,2
Kevin Smith,24
Kevin Wu,2
Kim Moser,2
Kim Tran,3
Kimberly Einstein,2
Kris Lewis,2
Kristen Jones,2
Kristen Robbins,2
Kristen Scott,3
Kyle Alexander,2
Kyle Brown,10
Kyle Evans,4
Kyle Franke,2
Kyle Johnson,9
Kyle Kirby,3
Kyle Miller,8
Kyle Olsen,2
Kyle Sheridan,2
Kyle Thompson,3
Kyle Weiss,2
L. Asher,2
L. Perez,2
Landon Harris,2
Lane,6
Lane Thomas,2
Larry Reed,3
Larry Williams,4
Laura Carter,2
Laura Smith,3
Laura Williams,3
Lauren Green,2
Leah Davis,2
Leandro Fernandez,2
Leanne Brown,2
Lee Jacobs,2
Lee Kelly,2
Lee Moran,2
Lee Smith,5
Leo Hernandez,3
Lewis Bennett,2
Lewis Hughes,4
Lindsay Maguire,2
Lindsay McGuire,5
Lisa Baker,2
Lisa Grant,2
Lisa Long,2
Lisa Miller,4
Lisa Tran,2
Lisa Wilson,3
Louise Edwards,2
Louise Jones,3
Luc Leblanc,2
Luis Munoz,6
Luis Pacheco,2
Luis Ramos,6
Luis Soto,2
Luke George,2
Luke Richardson,2
Luke Rogers,3
Luke Wilson,5
M. Ayers,3
M. Clark,7
M. Galante,2
M. Gonzales,2
M. Johnson,22
M. Moore,10
M. Roberts,2
M. Scott,7
M. Smith,17
M. Suzuki,4
M. Walker,8
M. White,7
M. Zarefoss,2
Maksim Popov,12
Malcolm Richards,2
Manuel Rodriguez,6
Martin Gonzalez,2
Martin Green,2
Martin Hernandez,4
Martin Nguyen,3
Marco Reyes,4
Marcus Collins,3
Marcus Hernandez,3
Marcus Jones,5
Maria Ramos,3
Maria Sanchez,4
Marian Gibson,2
Mario Morales,3
Mario Rodriguez,4
Marissa Mendoza,2
Mark Baker,2
Mark Castillo,2
Mark Dowling,2
Mark Hammond,2
Mark Hartman,2
Mark Hennessey,2
Mark Henry,2
Mark Plummer,2
Mark Lockwood,2
Mark McCoy,2
Mark Miller,9
Mark Palmer,2
Mark Schwartz,2
Mark Stewart,3
Mark Taylor,5
Mark Thompson,4
Martin Rodriguez,5
Marvin Smith,2
Mason Evans,3
Matt Adams,2
Matt Brown,8
Matt Chapman,3
Matt Collins,4
Matt Cooper,2
Matt Golden,2
Matt Harding,3
Matt Harris,4
Matt Jones,8
Matt Knight,4
Matt Mitchell,7
Matt Moran,2
Matt Morgan,2
Matt Richards,4
Matt Robertson,3
Matt Robinson,3
Matt Smith,31
Matt Sweeney,2
Matt Ward,3
Matt Watson,4
Matt Wilson,8
Matthew Bauer,2
Matthew Brown,8
Matthew Burke,3
Matthew Collins,7
Matthew Cruz,3
Matthew Fulton,2
Matthew Gray,3
Matthew Hoffman,2
Matthew Jacobs,3
Matthew Johnson,11
Matthew Jones,18
Matthew Jordan,3
Matthew Knight,3
Matthew Lynch,4
Matthew Martino,3
Matthew Nicholson,2
Matthew Ramos,2
Matthew Richards,3
Matthew Smith,27
Matthew Thompson,13
Matthew Turner,5
Matthew Wagner,2
Matthew White,3
Matti Lahti,2
Mauricio Rodriguez,4
Max Cooper,2
Max Jones,3
Max Peek,2
Maximilian Tischler,2
Mayra Yanez,2
Megan Marshall,3
Megan Martin,3
Megan Moore,2
Megan Reilly,3
Melanie Martin,2
Mel Smith,2
Micah Moore,2
Michael Booker,2
Michael Brooks,2
Michael Caputo,2
Michael Cook,6
Michael Davis,11
Michael Dean,4
Michael DeStefano,2
Michael Egan,2
Michael Farrell,2
Michael Ferguson,6
Michael Flynn,4
Michael Franklin,3
Michael Gallagher,2
Michael Hawkins,3
Michael Jones,3
Michael Kohl,2
Michael Kruger,2
Michael Moore,3
Michael Morris,4
Michael Newton,2
Michael Norwood,4
Michael Pinto,2
Michael Rossi,4
Michael Samson,2
Michael Scott,10
Michael Shaw,2
Michael Smith,16
Michael Stanley,4
Michael Vecchio,2
Michael Yu,2
Michelle de Jong,2
Michelle Lewis,2
Michelle Parkinson,2
Mikhail Levchenko,2
Mark Daniels,2
Melissa Castillo,3
Melissa Garza,2
Melissa Smith,4
Michael Fisher,2
Michael McHugh,2
Michael Walker,6
Mike Bailey,2
Mike Barnett,2
Mike Boyer,2
Mike Conley,2
Mike Cross,2
Mike Ellis,2
Mike Harris,2
Mike Jenkins,4
Mike Jones,20
Mike Lanier,2
Mike Lawrence,4
Mike MacDonald,2
Mike Moore,4
Mike Morris,4
Mike Rose,2
Mike Sanchez,4
Mike Scott,4
Mike Stokes,2
Mike Stone,2
Mike Taylor,4
Mike Thompson,4
Mike Wolfe,2
Mike Womack,4
Minh Nguyen,8
Mitch Lee,2
Mohamad Arnaout,2
Mohammed Rahman,2
Mona Smith,2
Morgan,7
Morgan Taylor,2
Morgan Thompson,3
Morgan Turner,4
Natalie Weber,2
Natalya Kuzmina,2
Nate Davis,2
Nate Henderson,3
Nathan Alexander,3
Nathan Harris,4
Nathan Henderson,3
Nathan Jackson,3
Nathan Jones,4
Nathan Miller,5
Nathan Martin,4
Nathan Peterson,2
Nathan Smith,12
Nathan Wells,2
Nathan Wilson,4
Nathaniel Baker,3
Neil Jones,2
Nicholas Anderson,5
Nicholas Brooks,2
Nicholas Hill,2
Nicholas Evans,2
Nicholas Johnson,2
Nicholas Murphy,2
Nick Fisher,2
Nick Hill,3
Nick Moore,2
Nick Murray,3
Nick Rowe,2
Nick Wright,3
Nicolas Martin,2
Nicole Johnson,3
Nicole Mason,2
Nikita Efimov,5
Noah Anderson,3
Noah Young,2
Noe Garcia,2
O. Campo,2
Olivia Adams,2
Ollie Walker,2
Oscar Sandoval,2
Oscar Vasquez,3
Owen Smith,4
P. Rice,2
Pat Hall,2
Patricia Morgan,3
Patrick Griffin,2
Patrick McCloskey,2
Patrick McNamara,3
Patrick Maguire,2
Patrick Moore,4
Patrick Morrison,2
Patrick Wells,2
Patrick Williams,4
Paul Bennett,2
Paul Bryant,2
Paul Childress,2
Paul Fleming,3
Paul Jackson,2
Paul Johnson,5
Paul MacDonald,2
Paul Mears,2
Paul Murphy,2
Paul Newman,2
Paul Nguyen,3
Paul Williams,3
Paul Walker,2
Paul Wood,3
Paulo Santos,2
Pavel Svoboda,2
Perez,6
Pete Aaron,2
Pete Bush,2
Peter Hubbard,2
Peter Jones,2
Peter Nguyen,10
Peter Weiss,2
Petri Leinonen,2
Phillip Kerr,2
Pieter De Waal,2
R. Ando,3
R. Brown,15
R. Clark,14
R. Gillen,2
R. Simon,3
R. Thomas,10
Rachael Johnson,3
Rachel Hughes,3
Rachel Smith,5
Rakesh Kumar,2
Ramon Figueroa,2
Randy Scott,2
Ray Cross,2
Ray Harris,2
Ray Williams,2
Raymond Bell,3
Raymond Gonzales,3
Rebecca Smith,2
Rene Juarez,3
Rhys Jones,3
Rich Woods,2
Richard,2
Richard Adams,2
Richard Daniel,2
Richard Flores,5
Richard Jones,6
Richard Lewis,3
Richard Ruiz,2
Richard Turner,2
Richard Williams,3
Richard Wright,2
Rick Perez,2
Rick Smith,2
Ricky May,2
Ricky Ortiz,3
Robbie Smith,2
Rob Ryan,2
Rob Smith,4
Robert Avery,2
Robert Bennett,2
Robert Doll,2
Robert Garcia,12
Robert Godinez,2
Robert Hayes,2
Robert Hughes,3
Robert Keller,3
Robert Khun,2
Robert McMaster,2
Robert Morrison,2
Robert Palmer,2
Robert Ramsey,5
Robert Schmidt,4
Robert Scott,3
Robert Simmons,2
Robert Tucker,2
Robert Young,4
Robin Riley,2
Roger Davis,4
Roger Eriksson,2
Rogers,10
Roman Gavrilov,2
Roman Gonzales,3
Roman Kuznetsov,8
Ross Wiggin,2
Ruben Hernandez,3
Rudy Ruiz,4
Russell Edwards,2
Russell Taylor,4
Ryan Alexander,3
Ryan Allen,3
Ryan Bagley,2
Ryan Brown,5
Ryan Campbell,2
Ryan Carrillo,2
Ryan Clark,8
Ryan Collins,4
Ryan Gallo,2
Ryan Green,3
Ryan Horton,2
Ryan Hughes,5
Ryan Jones,11
Ryan Kennedy,3
Ryan King,8
Ryan Lee,4
Ryan Miller,6
Ryan Mitchell,2
Ryan Preston,3
Ryan Stephenson,2
Ryan Strange,2
Ryan Taylor,9
Ryan Thompson,5
Ryan Webb,3
Ryan Williams,7
S. Cook,6
S. Fitzgerald,2
S. Hanley,2
S. Herman,2
S. Hires,3
S. Hultz,2
S. Johnson,17
S. Keen,2
S. Moyer,2
S. Murphy,5
S. Orrell,2
S. Parks,3
S. Pearman,2
S. Pence,2
S. Smith,11
Sam Bell,2
Sam Cox,3
Sam Fowler,5
Sam Johnson,6
Sam Jones,3
Sam Parker,3
Sam Robinson,3
Sam Smith,10
Sam Taylor,6
Samantha Cox,2
Samantha Taylor,4
Samuel Legg,2
Samuel Smith,3
Samuel Taylor,2
Sandy Lee,2
Sandra Mullin,2
Sandra Torres,2
Sara King,2
Sarah Brenner,2
Sarah Brown,3
Sarah Green,2
Sarah Griffin,2
Sarah Lewis,3
Sarah Skinner,3
Sarah Vance,2
Sarah Walls,3
Sarah White,2
Scott Hill,2
Scott Hopkins,2
Scott Hughes,2
Scott Rowe,2
Scott Simon,2
Scott Sullivan,3
Sean Brown,5
Sean Burke,2
Sean Dunn,2
Sean Green,5
Sean Hayes,3
Sean McCarthy,3
Sean Miller,2
Sean Simpson,2
Sergey Biryukov,6
Sergey Konovalov,4
Sergio Rodriguez,6
Sergio Torres,4
Seth Johnson,5
Seung Lee,2
Shannon Jacobsen,2
Sharon Holmes,2
Shawn Brooks,2
Shawn Jones,8
Shawn Murphy,3
Shay Ward,2
Shelby Jones,3
Shelly Stewart,2
Siobhan Hynes,2
Sophie Smith,2
Spencer Brown,4
Stephanie Bennett,2
Stephen Adams,2
Stephen Anderson,2
Stephen Brown,4
Stephen Martin,2
Stephen Moore,4
Stephen White,2
Steve Arnold,3
Steve Brown,8
Steve Fleming,2
Steve Gardner,3
Steve Jarvis,3
Steve Johnson,11
Steve Knight,2
Steve Lumpee,2
Steve Miller,3
Steve Peña,2
Steve Snell,2
Steve Snyder,3
Steven Brown,2
Steven Lee,5
Steven Moore,4
Steven Rice,2
Steven Short,2
Steven Williams,5
Susan Johnson,3
Suzanne Smith,4
T. An,2
Taylor Chapman,2
Taylor Young,5
Terry Baldwin,2
Terry Smith,5
Thomas Adams,3
Thomas Davis,3
Thomas Le,2
Thomas Marshall,2
Thomas McCarty,2
Thomas McKinney,2
Thomas Miller,6
Thomas Ochoa,2
Thomas Perry,2
Thomas Wang,2
Tim Gale,2
Tim Krause,2
Tim Lewis,3
Tim Martin,4
Tim O'Brien,2
Tim Parker,5
Tim Smith,9
Tim Taylor,6
Timothy Brown,2
Tina Michaud,2
Tom Bishop,2
Tom Brown,4
Tom Cunningham,2
Tom Davis,6
Tom Davies,2
Tom Fox,3
Tom Gee,2
Tom Griffiths,2
Tom Martin,3
Tom Miller,4
Tom Ross,2
Tom Smith,7
Tom Williams,3
Tomas Gomez,2
Tomas Novak,2
Tommy Ray D'Ortez,2
Tony Le,3
Tony Robinson,2
Tracy Brown,3
Tracy Bryant,3
Tracy Johnson,5
Tracy Jones,3
Travis Webb,3
Trevor Gilbert,2
Trevor Miller,3
Trevor Walker,2
Troy Robinson,2
Tu Le,3
Ty Evans,3
Tyler Collins,3
Tyler Copeland,2
Tyler Elliott,2
Tyson Hubbard,2
Tyler Jackson,4
Tyler Mann,3
Valerie Sanchez,3
Valerie Smith,2
Valery Novik,2
Victor Castro,3
Victoria Hammond,2
Victoria Robinson,2
Vitaliy Savin,2
Viktor Kurbatov,2
Vincent Brown,2
Vincent Jones,3
Vladislav Kravchenko,2
W. Aller,2
W. Stewart,5
Weiss,2
Wesley Hall,2
Wesley Williams,5
Will Barnett,3
William Adams,3
William Allen,2
William Andrews,4
William Brown,8
William Davis,3
William Jackson,6
William Jones,7
William Manning,2
William McLaughlin,3
William Murray,4
William Newton,2
William Payne,3
William Peters,2
William Phillips,2
William Pickering,2
William Reed,3
William Watts,3
William Webb,3
William West,3
Xavier Johnson,2
Zach Brown,4
Zach Cole,2
Zach Flowers,2
Zach Morrow,3
Zach Smith,9
Zach Turner,2
Zach Wilson,2
Zachary Nelson,2
Zackary Sanders,2
Zoltan Horvath,2
