Name,Division,Equipment,Sex,Age,WeightClassKg,BodyweightKg,Best3SquatKg,Best3BenchKg,Best3DeadliftKg,TotalKg,Event,Tested,Place
Eric Cressey,M_JEM_AAPF,Multi-ply,M,23,75,73.03,215.03,152.52,235.04,602.6,SBD,Yes,1
Ruben Santiago,M_JEM_AAPF,Multi-ply,M,20,100,96.16,250.04,150.03,217.53,617.61,SBD,Yes,1
Terrence Irving,M_JEM_AAPF,Multi-ply,M,21,125,119.29,250.04,217.53,272.55,740.13,SBD,Yes,1
Mike Cormier,M_MEM_1_AAPF,Multi-ply,M,42,82.5,80.29,272.55,182.53,242.54,697.62,SBD,Yes,1
Dyke Naughton,M_MEM_1_AAPF,Multi-ply,M,41,82.5,80.29,250.04,200.03,180.03,630.11,SBD,Yes,2
Randy Pushard,M_MEM_1_AAPF,Multi-ply,M,40,82.5,79.04,210.04,147.52,200.03,557.6,SBD,Yes,3
Vincent Scelfo,M_MEM_2_AAPF,Multi-ply,M,47,67.5,65.54,187.53,110.02,142.52,440.08,SBD,Yes,1
Michael Larsen,M_MEM_2_AAPF,Multi-ply,M,45,75,73.48,185.03,82.51,180.03,447.58,SBD,Yes,1
Bob Fabiano,M_MEM_2_AAPF,Multi-ply,M,48,82.5,82.1,227.54,182.53,227.54,637.61,SBD,Yes,1
Doug Morong,M_MEM_2_AAPF,Multi-ply,M,47,90,86.41,230.04,172.53,272.55,675.11,SBD,Yes,1
Marc Terman,M_MEM_2_AAPF,Multi-ply,M,45,100,99.79,317.5,165.03,300.05,782.58,SBD,Yes,1
Steve Cote,M_MEM_2_AAPF,Multi-ply,M,45,100,98.77,310.05,150.03,245.04,705.12,SBD,Yes,2
Philip Thomsen,M_MEM_2_AAPF,Multi-ply,M,46,100,99.9,240,170.03,250.04,660.07,SBD,Yes,3
Doug Parks,M_MEM_2_AAPF,Multi-ply,M,45,110,107.5,330,177.53,240.04,747.57,SBD,Yes,1
Tim Lane,M_MEM_2_AAPF,Multi-ply,M,45,140,127.69,342.5,197.53,305.05,845.09,SBD,Yes,1
Francis Rudy Ruettiger,M_MEM_3_AAPF,Multi-ply,M,50,82.5,82.1,277.54,160,227.54,665.08,SBD,Yes,1
Gordon Wolfe,M_MEM_3_AAPF,Multi-ply,M,51,82.5,81.19,267.54,147.52,230.04,645.11,SBD,Yes,2
Dick Zenzen,M_MEM_3_AAPF,Multi-ply,M,52,100,98.66,297.55,170.03,237.54,705.12,SBD,Yes,1
Mike Wider,M_MEM_4_AAPF,Multi-ply,M,57,67.5,65.77,192.53,102.52,205.03,500.09,SBD,Yes,1
BJ Todd,M_MEM_4_AAPF,Multi-ply,M,56,82.5,80.74,230.04,132.52,182.53,545.1,SBD,Yes,1
Ed Sapienza,M_MEM_4_AAPF,Multi-ply,M,58,90,89.81,202.53,155.02,205.03,562.6,SBD,Yes,1
Richard Flores,M_MEM_6_AAPF,Multi-ply,M,67,75,73.94,235.04,120.02,242.54,597.6,SBD,Yes,1
Edward Brown,M_MEM_6_AAPF,Multi-ply,M,65,100,92.08,165,125.02,157.52,447.55,SBD,Yes,1
Eugene McCulloch,M_MEM_7_AAPF,Multi-ply,M,74,82.5,78.47,135.02,90.02,160.03,385.06,SBD,Yes,1
George Camacho,M_MEM_7_AAPF,Multi-ply,M,72,82.5,80.29,112.52,105.02,165.03,382.56,SBD,Yes,2
Dyke Naughton,M_MEM_1_AAPF,Multi-ply,M,41,82.5,80.29,,200.03,,200.03,B,Yes,1
William Blackstone,M_MEM_1_AAPF,Multi-ply,M,44,90,87.66,,175.03,,175.03,B,Yes,1
Sam Luciano,M_MEM_1_AAPF,Multi-ply,M,43,100,99.79,,205.03,,205.03,B,Yes,1
Lloyd Hemenway,M_MEM_2_AAPF,Multi-ply,M,45,125,120.88,,250.04,,250.04,B,Yes,1
Randy Egli,M_MEM_3_AAPF,Multi-ply,M,53,90,87.32,,162.53,,162.53,B,Yes,1
Thomas Nelson,M_MEM_4_AAPF,Multi-ply,M,56,140+,145.6,,197.53,,197.53,B,Yes,1
Jim Hussey,M_MEM_5_AAPF,Multi-ply,M,61,90,88,,160.03,,160.03,B,Yes,1
Floyd Kucharski,M_MEM_5_AAPF,Multi-ply,M,64,100,97.98,,117.52,,117.52,B,Yes,1
Bruce Bianco,M_MEM_7_AAPF,Multi-ply,M,70,110,100.92,,110.02,,110.02,B,Yes,1
Charles Morse,M_OEM_AAPF,Multi-ply,M,38,67.5,67.13,227.54,135.02,205.03,567.6,SBD,Yes,1
Louie Morrison,M_OEM_AAPF,Multi-ply,M,25,82.5,81.87,300.05,197.53,272.55,770.13,SBD,Yes,1
Charlie Kanavas,M_OEM_AAPF,Multi-ply,M,30,82.5,81.42,262.54,170.03,262.54,695.12,SBD,Yes,2
Putt Houston,M_OEM_AAPF,Multi-ply,M,32,82.5,81.42,250.04,175.03,245.04,670.11,SBD,Yes,3
John Pelletier,M_OEM_AAPF,Multi-ply,M,38,82.5,78.58,285.05,150.03,215.03,650.11,SBD,Yes,4
Bob Fabiano,M_OEM_AAPF,Multi-ply,M,48,82.5,82.1,227.54,182.53,227.54,637.61,SBD,Yes,5
Robert Clark,M_OEM_AAPF,Multi-ply,M,35,90,86.64,305.05,200.03,305.05,810.14,SBD,Yes,1
Jesse Soule,M_OEM_AAPF,Multi-ply,M,29,90,86.86,287.55,215.03,290.05,792.63,SBD,Yes,2
Jeff Rebera,M_OEM_AAPF,Multi-ply,M,37,90,88.9,315.05,215.03,260.04,790.14,SBD,Yes,3
George Sotirakos,M_OEM_AAPF,Multi-ply,M,31,90,89.92,287.55,217.53,277.54,782.63,SBD,Yes,4
Ethan Baker,M_OEM_AAPF,Multi-ply,M,25,90,89.58,285.05,210.04,260.04,755.13,SBD,Yes,5
Mike Ridge,M_OEM_AAPF,Multi-ply,M,36,100,98.66,287.55,227.54,250.04,765.13,SBD,Yes,1
Andrew Daignault,M_OEM_AAPF,Multi-ply,M,28,100,94.35,255.04,160.03,215.03,630.11,SBD,Yes,2
Anthony Acome,M_OEM_AAPF,Multi-ply,M,32,110,105.91,345.06,267.55,285.05,897.65,SBD,Yes,1
Joshua Gotlieb,M_OEM_AAPF,Multi-ply,M,31,110,102.97,332.56,182.53,287.55,802.64,SBD,Yes,2
Robert Tonini,M_OEM_AAPF,Multi-ply,M,32,110,109.09,320.05,227.54,255.04,802.64,SBD,Yes,3
David Jensen,M_OEM_AAPF,Multi-ply,M,30,110,108.18,295.05,197.53,275.04,767.63,SBD,Yes,4
Michael Chariott,M_OEM_AAPF,Multi-ply,M,31,110,103.87,252.54,147.52,260.04,660.11,SBD,Yes,5
David Sneed,M_OEM_AAPF,Multi-ply,M,28,110,107.05,125.02,82.51,200.03,407.57,SBD,Yes,6
Phil Halliwell,M_OEM_AAPF,Multi-ply,M,42,125,111.58,372.56,232.54,260.04,865.15,SBD,Yes,1
Gabe Bonneville,M_OEM_AAPF,Multi-ply,M,26,125,114.76,355.06,227.54,277.54,860.15,SBD,Yes,2
Charles Ryder,M_OEM_AAPF,Multi-ply,M,32,125,122.81,365.06,202.53,272.55,840.14,SBD,Yes,3
Sam Tyler,M_OEM_AAPF,Multi-ply,M,39,125,124.85,307.55,250.04,275.04,832.64,SBD,Yes,4
Brian Klaus,M_OEM_AAPF,Multi-ply,M,31,140,136.98,390.07,272.55,317.55,980.17,SBD,Yes,1
Robert Bierschbach,M_OEM_AAPF,Multi-ply,M,36,140,137.67,345.06,227.54,290.05,862.65,SBD,Yes,2
Tim Lane,M_OEM_AAPF,Multi-ply,M,45,140,127.69,342.5,197.53,305.05,845.09,SBD,Yes,3
Alfred Brickett,M_OEM_AAPF,Multi-ply,M,26,140,137.21,342.56,220.04,272.55,835.15,SBD,Yes,4
Jason Cross,M_OEM_AAPF,Multi-ply,M,26,140,133.02,347.56,197.53,272.55,817.64,SBD,Yes,5
Andrew Miller,M_OEM_AAPF,Multi-ply,M,37,140,136.76,272.55,235.04,272.55,780.13,SBD,Yes,6
Steven Barattini,M_OEM_AAPF,Multi-ply,M,38,82.5,80.51,,170.03,,170.05,B,Yes,1
Jeff Rebera,M_OEM_AAPF,Multi-ply,M,37,90,88.9,,215.03,,215.05,B,Yes,1
Michael Gerard,M_OEM_AAPF,Multi-ply,M,42,140,134.04,,237.54,,237.54,B,Yes,1
Charles Morse,M_SEM_AAPF,Multi-ply,M,38,67.5,67.13,227.54,135.02,205.03,567.6,SBD,Yes,1
John Pelletier,M_SEM_AAPF,Multi-ply,M,38,82.5,78.58,285.05,150.03,215.03,650.11,SBD,Yes,1
Robert Clark,M_SEM_AAPF,Multi-ply,M,35,90,86.64,305.05,200.03,305.05,810.14,SBD,Yes,1
Scott Nautel,M_SEM_AAPF,Multi-ply,M,37,90,85.5,272.55,165.03,255.04,692.62,SBD,Yes,2
John Westleigh,M_SEM_AAPF,Multi-ply,M,38,100,90.95,275.04,172.53,252.54,700.12,SBD,Yes,1
Dale Szymanski,M_SEM_AAPF,Multi-ply,M,35,125,120.66,,227.54,,227.54,B,Yes,1
Joshua Gallison,M_TEM_1_AAPF,Multi-ply,M,14,60,58.4,127.52,77.51,150.03,355.06,SBD,Yes,1
Michael Welcheck,M_TEM_2_AAPF,Multi-ply,M,17,90,86.18,285.05,175.03,205.03,665.11,SBD,Yes,1
Nick Metzger,M_TEM_2_AAPF,Multi-ply,M,17,100,99.34,272.55,205.03,250.04,727.63,SBD,Yes,1
Louis Stasko,M_TEM_2_AAPF,Multi-ply,M,16,125,119.98,317.55,175.03,237.54,730.12,SBD,Yes,1
Hunter Beck,M_TEM_2_AAPF,Multi-ply,M,16,125,113.4,272.55,205.03,205.03,682.62,SBD,Yes,2
Brent Addenbrooke,M_TEM_2_AAPF,Multi-ply,M,17,140,127.46,305.05,215.03,272.55,792.63,SBD,Yes,1
Michael Pelosi,M_TEM_2_AAPF,Multi-ply,M,17,140+,150.14,287.55,142.52,272.55,702.62,SBD,Yes,1
Aaron Manders,M_TEM_3_AAPF,Multi-ply,M,19,82.5,76.66,160.03,115.02,205.03,480.08,SBD,Yes,1
Kyle Davis,M_TEM_3_AAPF,Multi-ply,M,19,110,105.91,265.04,200.03,250.04,715.12,SBD,Yes,1
Jasmin Des Rosier,F_JEM_AAPF,Multi-ply,F,21,75,72.12,182.53,95.01,137.52,415.07,SBD,Yes,1
Stephanie Ross,F_MEM_1_AAPF,Multi-ply,F,42,82.5,77.34,137.52,72.51,125.02,335.06,SBD,Yes,1
Jane Stabile,F_MEM_3_AAPF,Multi-ply,F,52,82.5,81.19,140.02,62.51,147.52,350.06,SBD,Yes,1
Susan McCallion,F_MEM_4_AAPF,Multi-ply,F,56,56,53.98,95.01,37.5,105.02,237.54,SBD,Yes,1
Alison Rogers,F_OEM_AAPF,Multi-ply,F,29,52,50.12,117.52,80.01,145.02,342.56,SBD,Yes,1
Pamela Morong,F_OEM_AAPF,Multi-ply,F,33,60,58.97,135.02,70.01,145.02,350.06,SBD,Yes,1
Barbara Winslow,F_OEM_AAPF,Multi-ply,F,26,67.5,66.79,180.03,80.01,170.03,430.07,SBD,Yes,1
Brooke Fineis,F_OEM_AAPF,Multi-ply,F,27,75,74.84,220.04,112.52,182.53,515.09,SBD,Yes,1
Kathy Saunders,F_OEM_AAPF,Multi-ply,F,37,90+,120.2,162.53,70.01,165.03,397.57,SBD,Yes,1
Rachael Mayer,F_OEM_AAPF,Multi-ply,F,15,60,59.99,,62.51,,62.51,B,Yes,1
Brooke Fineis,F_OEM_AAPF,Multi-ply,F,27,75,74.84,,112.52,,112.54,B,Yes,1
Lisa Denison,F_SEM_AAPF,Multi-ply,F,36,75,74.39,202.53,87.51,162.53,452.5,SBD,Yes,1
Rachael Mayer,F_TEM_1_AAPF,Multi-ply,F,15,60,59.99,117.52,62.51,120.02,300.05,SBD,Yes,1
